LATITUDE,LONGITUDE,DENOMINAZIONE_STRUTTURA,INDIRIZZO,ANNO,CODICE_REGIONE,DESCRIZIONE_REGIONE,CODICE_AZIENDA,TIPO_AZIENDA,CODICE_STRUTTURA,CODICE_COMUNE,COMUNE,SIGLA_PROVINCIA,CODICE_TIPO_STRUTTURA,DESCRIZIONE_TIPO_STRUTTURA,TIPO_DI_DISCIPLINA,POSTI_LETTO_ORDINARI,POSTI_LETTO_DAY_HOSPITAL,POSTI_LETTO_DAY_SURGERY,TOTALE_POSTI_LETTO
45.8833452,11.0418182,OSPEDALE DI ROVERETO,CORSO VERONA 4,2010,42,PROV. AUTON. TRENTO,101,1,42006,22161,ROVERETO,TN,1,OSPEDALE A GESTIONE DIRETTA,ACUTI,297,14,22,333
45.8833452,11.0418182,OSPEDALE DI ROVERETO,CORSO VERONA 4,2010,42,PROV. AUTON. TRENTO,101,1,42006,22161,ROVERETO,TN,1,OSPEDALE A GESTIONE DIRETTA,RIABILITAZIONE,37,42,0,79
45.8833452,11.0418182,OSPEDALE DI ROVERETO,CORSO VERONA 4,2011,42,PROV. AUTON. TRENTO,101,1,42006,22161,ROVERETO,TN,1,OSPEDALE A GESTIONE DIRETTA,ACUTI,297,14,22,333
45.8833452,11.0418182,OSPEDALE DI ROVERETO,CORSO VERONA 4,2011,42,PROV. AUTON. TRENTO,101,1,42006,22161,ROVERETO,TN,1,OSPEDALE A GESTIONE DIRETTA,RIABILITAZIONE,37,42,0,79
45.8833452,11.0418182,OSPEDALE DI ROVERETO,CORSO VERONA 4,2012,42,PROV. AUTON. TRENTO,101,1,42006,22161,ROVERETO,TN,1,OSPEDALE A GESTIONE DIRETTA,ACUTI,297,14,22,333
45.8833452,11.0418182,OSPEDALE DI ROVERETO,CORSO VERONA 4,2012,42,PROV. AUTON. TRENTO,101,1,42006,22161,ROVERETO,TN,1,OSPEDALE A GESTIONE DIRETTA,RIABILITAZIONE,37,42,0,79
45.8833452,11.0418182,OSPEDALE DI ROVERETO,CORSO VERONA 4,2013,42,PROV. AUTON. TRENTO,101,1,42006,22161,ROVERETO,TN,1,OSPEDALE A GESTIONE DIRETTA,ACUTI,272,12,23,307
45.8833452,11.0418182,OSPEDALE DI ROVERETO,CORSO VERONA 4,2013,42,PROV. AUTON. TRENTO,101,1,42006,22161,ROVERETO,TN,1,OSPEDALE A GESTIONE DIRETTA,RIABILITAZIONE,20,42,0,62
46.07115,11.1246,OSPEDALE DI TRENTO,LARGO MEDAGLIE D'ORO 9,2011,42,PROV. AUTON. TRENTO,101,1,42001,22205,TRENTO,TN,1,OSPEDALE A GESTIONE DIRETTA,ACUTI,620,38,49,707
46.07115,11.1246,OSPEDALE DI TRENTO,LARGO MEDAGLIE D'ORO 9,2011,42,PROV. AUTON. TRENTO,101,1,42001,22205,TRENTO,TN,1,OSPEDALE A GESTIONE DIRETTA,RIABILITAZIONE,66,26,0,92
46.07115,11.1246,OSPEDALE DI TRENTO,LARGO MEDAGLIE D'ORO 9,2012,42,PROV. AUTON. TRENTO,101,1,42001,22205,TRENTO,TN,1,OSPEDALE A GESTIONE DIRETTA,ACUTI,625,39,47,711
46.07115,11.1246,OSPEDALE DI TRENTO,LARGO MEDAGLIE D'ORO 9,2012,42,PROV. AUTON. TRENTO,101,1,42001,22205,TRENTO,TN,1,OSPEDALE A GESTIONE DIRETTA,RIABILITAZIONE,66,26,0,92
46.07115,11.1246,OSPEDALE DI TRENTO,LARGO MEDAGLIE D'ORO 9,2013,42,PROV. AUTON. TRENTO,101,1,42001,22205,TRENTO,TN,1,OSPEDALE A GESTIONE DIRETTA,ACUTI,569,34,53,656
46.07115,11.1246,OSPEDALE DI TRENTO,LARGO MEDAGLIE D'ORO 9,2013,42,PROV. AUTON. TRENTO,101,1,42001,22205,TRENTO,TN,1,OSPEDALE A GESTIONE DIRETTA,RIABILITAZIONE,56,20,0,76
46.07115,11.1246,OSPEDALE DI TRENTO,LARGO MEDAGLIE D'ORO 9,2010,42,PROV. AUTON. TRENTO,101,1,42001,22205,TRENTO,TN,1,OSPEDALE A GESTIONE DIRETTA,ACUTI,674,41,56,771
46.07115,11.1246,OSPEDALE DI TRENTO,LARGO MEDAGLIE D'ORO 9,2010,42,PROV. AUTON. TRENTO,101,1,42001,22205,TRENTO,TN,1,OSPEDALE A GESTIONE DIRETTA,RIABILITAZIONE,71,26,0,97
45.899056,11.045025,CASA DI CURA SOLATRIX,VIA BELLINI 11,2010,42,PROV. AUTON. TRENTO,101,1,42020,22161,ROVERETO,TN,5.01,CASA DI CURA PRIVATA ACCREDITATA,ACUTI,65,0,0,65
45.899056,11.045025,CASA DI CURA SOLATRIX,VIA BELLINI 11,2010,42,PROV. AUTON. TRENTO,101,1,42020,22161,ROVERETO,TN,5.01,CASA DI CURA PRIVATA ACCREDITATA,RIABILITAZIONE,15,0,0,15
45.899056,11.045025,CASA DI CURA SOLATRIX,VIA BELLINI 11,2010,42,PROV. AUTON. TRENTO,101,1,42020,22161,ROVERETO,TN,5.01,CASA DI CURA PRIVATA ACCREDITATA,LUNGODEGENZA,30,0,0,30
45.899056,11.045025,CASA DI CURA SOLATRIX,VIA BELLINI 11,2011,42,PROV. AUTON. TRENTO,101,1,42020,22161,ROVERETO,TN,5.01,CASA DI CURA PRIVATA ACCREDITATA,ACUTI,65,0,0,65
45.899056,11.045025,CASA DI CURA SOLATRIX,VIA BELLINI 11,2011,42,PROV. AUTON. TRENTO,101,1,42020,22161,ROVERETO,TN,5.01,CASA DI CURA PRIVATA ACCREDITATA,RIABILITAZIONE,15,0,0,15
45.899056,11.045025,CASA DI CURA SOLATRIX,VIA BELLINI 11,2011,42,PROV. AUTON. TRENTO,101,1,42020,22161,ROVERETO,TN,5.01,CASA DI CURA PRIVATA ACCREDITATA,LUNGODEGENZA,30,0,0,30
45.899056,11.045025,CASA DI CURA SOLATRIX,VIA BELLINI 11,2012,42,PROV. AUTON. TRENTO,101,1,42020,22161,ROVERETO,TN,5.01,CASA DI CURA PRIVATA ACCREDITATA,ACUTI,65,0,0,65
45.899056,11.045025,CASA DI CURA SOLATRIX,VIA BELLINI 11,2012,42,PROV. AUTON. TRENTO,101,1,42020,22161,ROVERETO,TN,5.01,CASA DI CURA PRIVATA ACCREDITATA,RIABILITAZIONE,15,0,0,15
45.899056,11.045025,CASA DI CURA SOLATRIX,VIA BELLINI 11,2012,42,PROV. AUTON. TRENTO,101,1,42020,22161,ROVERETO,TN,5.01,CASA DI CURA PRIVATA ACCREDITATA,LUNGODEGENZA,30,0,0,30
45.899056,11.045025,CASA DI CURA SOLATRIX,VIA BELLINI 11,2013,42,PROV. AUTON. TRENTO,101,1,42020,22161,ROVERETO,TN,5.01,CASA DI CURA PRIVATA ACCREDITATA,ACUTI,65,0,0,65
45.899056,11.045025,CASA DI CURA SOLATRIX,VIA BELLINI 11,2013,42,PROV. AUTON. TRENTO,101,1,42020,22161,ROVERETO,TN,5.01,CASA DI CURA PRIVATA ACCREDITATA,LUNGODEGENZA,30,0,0,30
45.899056,11.045025,CASA DI CURA SOLATRIX,VIA BELLINI 11,2013,42,PROV. AUTON. TRENTO,101,1,42020,22161,ROVERETO,TN,5.01,CASA DI CURA PRIVATA ACCREDITATA,RIABILITAZIONE,15,0,0,15
45.9178609,10.8855763,PRESIDIO OSPEDALIERO DI ARCO,VIA CAPITELLI 48,2010,42,PROV. AUTON. TRENTO,101,1,42010,22006,ARCO,TN,1,OSPEDALE A GESTIONE DIRETTA,ACUTI,106,8,7,121
45.9178609,10.8855763,PRESIDIO OSPEDALIERO DI ARCO,VIA CAPITELLI 48,2010,42,PROV. AUTON. TRENTO,101,1,42010,22006,ARCO,TN,1,OSPEDALE A GESTIONE DIRETTA,RIABILITAZIONE,8,8,0,16
45.9178609,10.8855763,PRESIDIO OSPEDALIERO DI ARCO,VIA CAPITELLI 48,2010,42,PROV. AUTON. TRENTO,101,1,42010,22006,ARCO,TN,1,OSPEDALE A GESTIONE DIRETTA,LUNGODEGENZA,13,0,0,13
45.9178609,10.8855763,PRESIDIO OSPEDALIERO DI ARCO,VIA CAPITELLI 48,2011,42,PROV. AUTON. TRENTO,101,1,42010,22006,ARCO,TN,1,OSPEDALE A GESTIONE DIRETTA,ACUTI,106,8,7,121
45.9178609,10.8855763,PRESIDIO OSPEDALIERO DI ARCO,VIA CAPITELLI 48,2011,42,PROV. AUTON. TRENTO,101,1,42010,22006,ARCO,TN,1,OSPEDALE A GESTIONE DIRETTA,RIABILITAZIONE,8,8,0,16
45.9178609,10.8855763,PRESIDIO OSPEDALIERO DI ARCO,VIA CAPITELLI 48,2011,42,PROV. AUTON. TRENTO,101,1,42010,22006,ARCO,TN,1,OSPEDALE A GESTIONE DIRETTA,LUNGODEGENZA,13,0,0,13
45.9178609,10.8855763,PRESIDIO OSPEDALIERO DI ARCO,VIA CAPITELLI 48,2012,42,PROV. AUTON. TRENTO,101,1,42010,22006,ARCO,TN,1,OSPEDALE A GESTIONE DIRETTA,ACUTI,105,8,12,125
45.9178609,10.8855763,PRESIDIO OSPEDALIERO DI ARCO,VIA CAPITELLI 48,2012,42,PROV. AUTON. TRENTO,101,1,42010,22006,ARCO,TN,1,OSPEDALE A GESTIONE DIRETTA,RIABILITAZIONE,8,8,0,16
45.9178609,10.8855763,PRESIDIO OSPEDALIERO DI ARCO,VIA CAPITELLI 48,2012,42,PROV. AUTON. TRENTO,101,1,42010,22006,ARCO,TN,1,OSPEDALE A GESTIONE DIRETTA,LUNGODEGENZA,7,0,0,7
45.9178609,10.8855763,PRESIDIO OSPEDALIERO DI ARCO,VIA CAPITELLI 48,2013,42,PROV. AUTON. TRENTO,101,1,42010,22006,ARCO,TN,1,OSPEDALE A GESTIONE DIRETTA,ACUTI,90,8,6,104
45.9178609,10.8855763,PRESIDIO OSPEDALIERO DI ARCO,VIA CAPITELLI 48,2013,42,PROV. AUTON. TRENTO,101,1,42010,22006,ARCO,TN,1,OSPEDALE A GESTIONE DIRETTA,LUNGODEGENZA,4,0,0,4
45.9178609,10.8855763,PRESIDIO OSPEDALIERO DI ARCO,VIA CAPITELLI 48,2013,42,PROV. AUTON. TRENTO,101,1,42010,22006,ARCO,TN,1,OSPEDALE A GESTIONE DIRETTA,RIABILITAZIONE,8,4,0,12
45.9178609,10.8855763,IST.RIAB.S.STEFANO-U.O. OSP. S.PANCRAZIO,VIA D.CHIESA 2,2010,42,PROV. AUTON. TRENTO,101,1,42016,22006,ARCO,TN,4,OSPEDALE CLASSIFICATO O ASSIMILATO AI SENSI DELL'ART. 1 ULTIMO COMMA DELLA LEGGE 132/1968,RIABILITAZIONE,83,0,0,83
45.9178609,10.8855763,IST.RIAB.S.STEFANO-U.O. OSP. S.PANCRAZIO,VIA D.CHIESA 2,2011,42,PROV. AUTON. TRENTO,101,1,42016,22006,ARCO,TN,5.01,CASA DI CURA PRIVATA ACCREDITATA,RIABILITAZIONE,83,0,0,83
45.9178609,10.8855763,IST.RIAB.S.STEFANO-U.O. OSP. S.PANCRAZIO,VIA D.CHIESA 2,2012,42,PROV. AUTON. TRENTO,101,1,42016,22006,ARCO,TN,5.01,CASA DI CURA PRIVATA ACCREDITATA,RIABILITAZIONE,83,0,0,83
45.9178609,10.8855763,IST.RIAB.S.STEFANO-U.O. OSP. S.PANCRAZIO,VIA D.CHIESA 2,2013,42,PROV. AUTON. TRENTO,101,1,42016,22006,ARCO,TN,5.01,CASA DI CURA PRIVATA ACCREDITATA,RIABILITAZIONE,83,0,0,83
46.2884945,11.4552572,PRESIDIO OSPEDALIERO DI CAVALESE,VIA DOSSI 17,2010,42,PROV. AUTON. TRENTO,101,1,42014,22050,CAVALESE,TN,1,OSPEDALE A GESTIONE DIRETTA,ACUTI,78,2,5,85
46.2884945,11.4552572,PRESIDIO OSPEDALIERO DI CAVALESE,VIA DOSSI 17,2011,42,PROV. AUTON. TRENTO,101,1,42014,22050,CAVALESE,TN,1,OSPEDALE A GESTIONE DIRETTA,ACUTI,78,2,5,85
46.2884945,11.4552572,PRESIDIO OSPEDALIERO DI CAVALESE,VIA DOSSI 17,2012,42,PROV. AUTON. TRENTO,101,1,42014,22050,CAVALESE,TN,1,OSPEDALE A GESTIONE DIRETTA,ACUTI,75,2,8,85
46.2884945,11.4552572,PRESIDIO OSPEDALIERO DI CAVALESE,VIA DOSSI 17,2013,42,PROV. AUTON. TRENTO,101,1,42014,22050,CAVALESE,TN,1,OSPEDALE A GESTIONE DIRETTA,ACUTI,65,5,6,76
45.91745,10.88038,CASA DI CURA SACRA FAMIGLIA,VIA NAS 4,2010,42,PROV. AUTON. TRENTO,101,1,42021,22006,ARCO,TN,5.01,CASA DI CURA PRIVATA ACCREDITATA,LUNGODEGENZA,20,0,0,20
45.91745,10.88038,CASA DI CURA SACRA FAMIGLIA,VIA NAS 4,2011,42,PROV. AUTON. TRENTO,101,1,42021,22006,ARCO,TN,5.01,CASA DI CURA PRIVATA ACCREDITATA,LUNGODEGENZA,20,0,0,20
45.91745,10.88038,CASA DI CURA SACRA FAMIGLIA,VIA NAS 4,2012,42,PROV. AUTON. TRENTO,101,1,42021,22006,ARCO,TN,5.01,CASA DI CURA PRIVATA ACCREDITATA,LUNGODEGENZA,20,0,0,20
45.91745,10.88038,CASA DI CURA SACRA FAMIGLIA,VIA NAS 4,2013,42,PROV. AUTON. TRENTO,101,1,42021,22006,ARCO,TN,5.01,CASA DI CURA PRIVATA ACCREDITATA,LUNGODEGENZA,20,0,0,20
46.0405907,10.7243946,PRESIDIO OSPEDALIERO DI TIONE,VIA OSPEDALE 11,2010,42,PROV. AUTON. TRENTO,101,1,42007,22199,TIONE DI TRENTO,TN,1,OSPEDALE A GESTIONE DIRETTA,ACUTI,74,4,6,84
46.0405907,10.7243946,PRESIDIO OSPEDALIERO DI TIONE,VIA OSPEDALE 11,2011,42,PROV. AUTON. TRENTO,101,1,42007,22199,TIONE DI TRENTO,TN,1,OSPEDALE A GESTIONE DIRETTA,ACUTI,74,4,6,84
46.0405907,10.7243946,PRESIDIO OSPEDALIERO DI TIONE,VIA OSPEDALE 11,2012,42,PROV. AUTON. TRENTO,101,1,42007,22199,TIONE DI TRENTO,TN,1,OSPEDALE A GESTIONE DIRETTA,ACUTI,65,4,6,75
46.0405907,10.7243946,PRESIDIO OSPEDALIERO DI TIONE,VIA OSPEDALE 11,2013,42,PROV. AUTON. TRENTO,101,1,42007,22199,TIONE DI TRENTO,TN,1,OSPEDALE A GESTIONE DIRETTA,ACUTI,53,4,5,62
46.0624119,11.1266102,CASA DI CURA VILLA BIANCA,VIA PIAVE 78,2010,42,PROV. AUTON. TRENTO,101,1,42022,22205,TRENTO,TN,5.01,CASA DI CURA PRIVATA ACCREDITATA,ACUTI,39,0,6,45
46.0624119,11.1266102,CASA DI CURA VILLA BIANCA,VIA PIAVE 78,2010,42,PROV. AUTON. TRENTO,101,1,42022,22205,TRENTO,TN,5.01,CASA DI CURA PRIVATA ACCREDITATA,LUNGODEGENZA,12,0,0,12
46.0624119,11.1266102,CASA DI CURA VILLA BIANCA,VIA PIAVE 78,2011,42,PROV. AUTON. TRENTO,101,1,42022,22205,TRENTO,TN,5.01,CASA DI CURA PRIVATA ACCREDITATA,ACUTI,39,0,6,45
46.0624119,11.1266102,CASA DI CURA VILLA BIANCA,VIA PIAVE 78,2011,42,PROV. AUTON. TRENTO,101,1,42022,22205,TRENTO,TN,5.01,CASA DI CURA PRIVATA ACCREDITATA,LUNGODEGENZA,12,0,0,12
46.0624119,11.1266102,CASA DI CURA VILLA BIANCA,VIA PIAVE 78,2012,42,PROV. AUTON. TRENTO,101,1,42022,22205,TRENTO,TN,5.01,CASA DI CURA PRIVATA ACCREDITATA,ACUTI,39,0,6,45
46.0624119,11.1266102,CASA DI CURA VILLA BIANCA,VIA PIAVE 78,2012,42,PROV. AUTON. TRENTO,101,1,42022,22205,TRENTO,TN,5.01,CASA DI CURA PRIVATA ACCREDITATA,LUNGODEGENZA,12,0,0,12
46.0624119,11.1266102,CASA DI CURA VILLA BIANCA,VIA PIAVE 78,2013,42,PROV. AUTON. TRENTO,101,1,42022,22205,TRENTO,TN,5.01,CASA DI CURA PRIVATA ACCREDITATA,ACUTI,39,0,6,45
46.0624119,11.1266102,CASA DI CURA VILLA BIANCA,VIA PIAVE 78,2013,42,PROV. AUTON. TRENTO,101,1,42022,22205,TRENTO,TN,5.01,CASA DI CURA PRIVATA ACCREDITATA,LUNGODEGENZA,12,0,0,12
46.0648517,11.1314676,OSPEDALE SAN CAMILLO,VIA PODESTA GIOVANELLI 19,2010,42,PROV. AUTON. TRENTO,101,1,42015,22205,TRENTO,TN,4,OSPEDALE CLASSIFICATO O ASSIMILATO AI SENSI DELL'ART. 1 ULTIMO COMMA DELLA LEGGE 132/1968,ACUTI,105,0,7,112
46.0648517,11.1314676,OSPEDALE SAN CAMILLO,VIA PODESTA GIOVANELLI 19,2010,42,PROV. AUTON. TRENTO,101,1,42015,22205,TRENTO,TN,4,OSPEDALE CLASSIFICATO O ASSIMILATO AI SENSI DELL'ART. 1 ULTIMO COMMA DELLA LEGGE 132/1968,RIABILITAZIONE,6,0,0,6
46.0648517,11.1314676,OSPEDALE SAN CAMILLO,VIA PODESTA GIOVANELLI 19,2010,42,PROV. AUTON. TRENTO,101,1,42015,22205,TRENTO,TN,4,OSPEDALE CLASSIFICATO O ASSIMILATO AI SENSI DELL'ART. 1 ULTIMO COMMA DELLA LEGGE 132/1968,LUNGODEGENZA,7,0,0,7
46.0648517,11.1314676,OSPEDALE SAN CAMILLO,VIA PODESTA GIOVANELLI 19,2011,42,PROV. AUTON. TRENTO,101,1,42015,22205,TRENTO,TN,4,OSPEDALE CLASSIFICATO O ASSIMILATO AI SENSI DELL'ART. 1 ULTIMO COMMA DELLA LEGGE 132/1968,ACUTI,102,1,9,112
46.0648517,11.1314676,OSPEDALE SAN CAMILLO,VIA PODESTA GIOVANELLI 19,2011,42,PROV. AUTON. TRENTO,101,1,42015,22205,TRENTO,TN,4,OSPEDALE CLASSIFICATO O ASSIMILATO AI SENSI DELL'ART. 1 ULTIMO COMMA DELLA LEGGE 132/1968,RIABILITAZIONE,6,0,0,6
46.0648517,11.1314676,OSPEDALE SAN CAMILLO,VIA PODESTA GIOVANELLI 19,2011,42,PROV. AUTON. TRENTO,101,1,42015,22205,TRENTO,TN,4,OSPEDALE CLASSIFICATO O ASSIMILATO AI SENSI DELL'ART. 1 ULTIMO COMMA DELLA LEGGE 132/1968,LUNGODEGENZA,7,0,0,7
46.0648517,11.1314676,OSPEDALE SAN CAMILLO,VIA PODESTA GIOVANELLI 19,2012,42,PROV. AUTON. TRENTO,101,1,42015,22205,TRENTO,TN,4,OSPEDALE CLASSIFICATO O ASSIMILATO AI SENSI DELL'ART. 1 ULTIMO COMMA DELLA LEGGE 132/1968,ACUTI,102,1,9,112
46.0648517,11.1314676,OSPEDALE SAN CAMILLO,VIA PODESTA GIOVANELLI 19,2012,42,PROV. AUTON. TRENTO,101,1,42015,22205,TRENTO,TN,4,OSPEDALE CLASSIFICATO O ASSIMILATO AI SENSI DELL'ART. 1 ULTIMO COMMA DELLA LEGGE 132/1968,RIABILITAZIONE,6,0,0,6
46.0648517,11.1314676,OSPEDALE SAN CAMILLO,VIA PODESTA GIOVANELLI 19,2012,42,PROV. AUTON. TRENTO,101,1,42015,22205,TRENTO,TN,4,OSPEDALE CLASSIFICATO O ASSIMILATO AI SENSI DELL'ART. 1 ULTIMO COMMA DELLA LEGGE 132/1968,LUNGODEGENZA,7,0,0,7
46.0648517,11.1314676,OSPEDALE SAN CAMILLO,VIA PODESTA GIOVANELLI 19,2013,42,PROV. AUTON. TRENTO,101,1,42015,22205,TRENTO,TN,4,OSPEDALE CLASSIFICATO O ASSIMILATO AI SENSI DELL'ART. 1 ULTIMO COMMA DELLA LEGGE 132/1968,ACUTI,102,1,9,112
46.0648517,11.1314676,OSPEDALE SAN CAMILLO,VIA PODESTA GIOVANELLI 19,2013,42,PROV. AUTON. TRENTO,101,1,42015,22205,TRENTO,TN,4,OSPEDALE CLASSIFICATO O ASSIMILATO AI SENSI DELL'ART. 1 ULTIMO COMMA DELLA LEGGE 132/1968,LUNGODEGENZA,7,0,0,7
46.0648517,11.1314676,OSPEDALE SAN CAMILLO,VIA PODESTA GIOVANELLI 19,2013,42,PROV. AUTON. TRENTO,101,1,42015,22205,TRENTO,TN,4,OSPEDALE CLASSIFICATO O ASSIMILATO AI SENSI DELL'ART. 1 ULTIMO COMMA DELLA LEGGE 132/1968,RIABILITAZIONE,6,0,0,6
45.91714,10.88702,CASA DI CURA REGINA,VIA POMERIO 3,2010,42,PROV. AUTON. TRENTO,101,1,42019,22006,ARCO,TN,5.01,CASA DI CURA PRIVATA ACCREDITATA,LUNGODEGENZA,130,0,0,130
45.91714,10.88702,CASA DI CURA REGINA,VIA POMERIO 3,2011,42,PROV. AUTON. TRENTO,101,1,42019,22006,ARCO,TN,5.01,CASA DI CURA PRIVATA ACCREDITATA,LUNGODEGENZA,135,0,0,135
45.91714,10.88702,CASA DI CURA REGINA,VIA POMERIO 3,2012,42,PROV. AUTON. TRENTO,101,1,42019,22006,ARCO,TN,5.01,CASA DI CURA PRIVATA ACCREDITATA,LUNGODEGENZA,135,0,0,135
45.91714,10.88702,CASA DI CURA REGINA,VIA POMERIO 3,2013,42,PROV. AUTON. TRENTO,101,1,42019,22006,ARCO,TN,5.01,CASA DI CURA PRIVATA ACCREDITATA,LUNGODEGENZA,135,0,0,135
45.9196012,10.8705896,CASA DI CURA EREMO DI ARCO SRL,VIA XXI APRILE 1,2010,42,PROV. AUTON. TRENTO,101,1,42018,22006,ARCO,TN,5.01,CASA DI CURA PRIVATA ACCREDITATA,RIABILITAZIONE,145,0,0,145
45.9196012,10.8705896,CASA DI CURA EREMO DI ARCO SRL,VIA XXI APRILE 1  ,2011,42,PROV. AUTON. TRENTO,101,1,42018,22006,ARCO,TN,5.01,CASA DI CURA PRIVATA ACCREDITATA,RIABILITAZIONE,145,0,0,145
45.9196012,10.8705896,CASA DI CURA EREMO DI ARCO SRL,VIA XXI APRILE 1  ,2013,42,PROV. AUTON. TRENTO,101,1,42018,22006,ARCO,TN,5.01,CASA DI CURA PRIVATA ACCREDITATA,RIABILITAZIONE,145,8,0,153
46.3639261,11.0340153,PRESIDIO OSPEDALIERO DI CLES,VIALE DEGASPERI 31,2010,42,PROV. AUTON. TRENTO,101,1,42005,22062,CLES,TN,1,OSPEDALE A GESTIONE DIRETTA,ACUTI,115,8,3,126
46.3639261,11.0340153,PRESIDIO OSPEDALIERO DI CLES,VIALE DEGASPERI 31,2010,42,PROV. AUTON. TRENTO,101,1,42005,22062,CLES,TN,1,OSPEDALE A GESTIONE DIRETTA,LUNGODEGENZA,4,0,0,4
46.3639261,11.0340153,PRESIDIO OSPEDALIERO DI CLES,VIALE DEGASPERI 31,2011,42,PROV. AUTON. TRENTO,101,1,42005,22062,CLES,TN,1,OSPEDALE A GESTIONE DIRETTA,ACUTI,111,8,3,122
46.3639261,11.0340153,PRESIDIO OSPEDALIERO DI CLES,VIALE DEGASPERI 31,2011,42,PROV. AUTON. TRENTO,101,1,42005,22062,CLES,TN,1,OSPEDALE A GESTIONE DIRETTA,LUNGODEGENZA,8,0,0,8
46.3639261,11.0340153,PRESIDIO OSPEDALIERO DI CLES,VIALE DEGASPERI 31,2012,42,PROV. AUTON. TRENTO,101,1,42005,22062,CLES,TN,1,OSPEDALE A GESTIONE DIRETTA,ACUTI,101,12,3,116
46.3639261,11.0340153,PRESIDIO OSPEDALIERO DI CLES,VIALE DEGASPERI 31,2012,42,PROV. AUTON. TRENTO,101,1,42005,22062,CLES,TN,1,OSPEDALE A GESTIONE DIRETTA,LUNGODEGENZA,8,0,0,8
46.3639261,11.0340153,PRESIDIO OSPEDALIERO DI CLES,VIALE DEGASPERI 31,2013,42,PROV. AUTON. TRENTO,101,1,42005,22062,CLES,TN,1,OSPEDALE A GESTIONE DIRETTA,ACUTI,96,9,6,111
46.056449,11.462947,PRESIDIO OSPEDALIERO DI BORGO VALSUGANA,VIALE VICENZA 9,2010,42,PROV. AUTON. TRENTO,101,1,42004,22022,BORGO VALSUGANA,TN,1,OSPEDALE A GESTIONE DIRETTA,ACUTI,78,2,4,84
46.056449,11.462947,PRESIDIO OSPEDALIERO DI BORGO VALSUGANA,VIALE VICENZA 9,2011,42,PROV. AUTON. TRENTO,101,1,42004,22022,BORGO VALSUGANA,TN,1,OSPEDALE A GESTIONE DIRETTA,ACUTI,76,2,10,88
46.056449,11.462947,PRESIDIO OSPEDALIERO DI BORGO VALSUGANA,VIALE VICENZA 9,2012,42,PROV. AUTON. TRENTO,101,1,42004,22022,BORGO VALSUGANA,TN,1,OSPEDALE A GESTIONE DIRETTA,ACUTI,72,2,10,84
46.056449,11.462947,PRESIDIO OSPEDALIERO DI BORGO VALSUGANA,VIALE VICENZA 9,2013,42,PROV. AUTON. TRENTO,101,1,42004,22022,BORGO VALSUGANA,TN,1,OSPEDALE A GESTIONE DIRETTA,ACUTI,68,4,10,82
